eu/coprostudio/jpa/services/UserRepositoryServiceImpl.class
eu/coprostudio/jpa/domain/User.class
eu/coprostudio/jpa/repositories/UserRepository.class
eu/coprostudio/jpa/services/UserRepositoryService.class
eu/coprostudio/jpa/config/JpaConfig.class
